module gitlab.com/fivepm/api-commons

go 1.14

require (
	cloud.google.com/go/firestore v1.3.0 // indirect
	firebase.google.com/go v3.13.0+incompatible
	github.com/cosmotek/mailgo v0.0.0-20191210191450-42bb876cc816
	github.com/cosmotek/nexgo v0.0.0-20191207044309-47dc8fe3fdb1
	github.com/dgrijalva/jwt-go v3.2.0+incompatible
	github.com/google/go-cmp v0.5.2
	github.com/google/uuid v1.1.2
	github.com/hashicorp/vault/api v1.0.4
	github.com/jmoiron/sqlx v1.2.0
	github.com/lib/pq v1.0.0
	github.com/minio/minio-go/v6 v6.0.57
	github.com/mitchellh/mapstructure v1.3.3
	github.com/rs/zerolog v1.20.0
	google.golang.org/api v0.35.0
	googlemaps.github.io/maps v1.3.1
	gopkg.in/dgrijalva/jwt-go.v2 v2.7.0
)
